tests/CPU/explicit_reset_test.vcd
$comment Generated by Amaranth $end
$date 2026-04-19 01:47:25.604207 $end
$timescale 1 fs $end
$scope module bench $end
$scope module top $end
$var wire 1 ! clk $end
$var wire 1 " rst $end
$var wire 16 # pc $end
$var wire 1 $ rst$3 $end
$var wire 4 % internal_state $end
$upscope $end
$upscope $end
$enddefinitions $end
#0
$dumpvars
0!
0"
b0 #
0$
b0 %
$end
#500000000
1!
b1 %
b1 #
#1000000000
0!
#1500000000
1!
b10 %
b10 #
#2000000000
0!
#2500000000
1!
b11 %
b11 #
#3000000000
0!
#3500000000
1!
b0 %
b100 #
#4000000000
0!
#4500000000
1!
b1 %
b101 #
#5000000000
0!
#5500000000
1!
b10 %
b110 #
#6000000000
0!
#6500000000
1!
b11 %
b111 #
#7000000000
0!
#7500000000
1!
b0 %
b1000 #
#8000000000
0!
#8500000000
1!
b1 %
b1001 #
#9000000000
0!
#9500000000
1!
b10 %
b1010 #
#10000000000
0!
#10500000000
1!
b11 %
b1011 #
#11000000000
0!
#11500000000
1!
b0 %
b1100 #
#12000000000
0!
#12500000000
1!
b1 %
b1101 #
