tests/CPU/test_cpu_state.vcd
$comment Generated by Amaranth $end
$date 2026-04-19 00:58:47.061975 $end
$timescale 1 fs $end
$scope module bench $end
$scope module top $end
$var wire 1 ! clk $end
$var wire 1 " rst $end
$var wire 1 # we $end
$var wire 8 $ p $end
$var wire 1 % flag_c $end
$var wire 1 & flag_z $end
$var wire 1 ' flag_i $end
$var wire 1 ( flag_d $end
$var wire 1 ) flag_b $end
$var wire 1 * flag_v $end
$var wire 1 + flag_n $end
$var wire 1 , rst$11 $end
$var wire 4 - state $end
$var wire 16 . addr $end
$var wire 16 / pc $end
$var wire 8 0 sp $end
$var wire 4 1 cycle_count $end
$var wire 8 2 ir $end
$var wire 8 3 data_in $end
$var wire 8 4 opcode $end
$upscope $end
$upscope $end
$enddefinitions $end
#0
$dumpvars
0!
0"
0#
b1000000 $
0%
0&
0'
0(
0)
0*
0+
0,
b0 -
b0 .
b0 /
b0 0
b0 1
b0 2
b0 3
b0 4
$end
#500000000
1!
b1 -
b1 /
#1000000000
0!
#1500000000
1!
b10 -
#2000000000
0!
#2500000000
1!
b11 -
#3000000000
0!
#3500000000
1!
b0 -
b1 .
#4000000000
0!
#4500000000
1!
b1 -
b10 /
b0 .
#5000000000
0!
#5500000000
1!
b10 -
#6000000000
0!
#6500000000
1!
b11 -
#7000000000
0!
#7500000000
1!
b0 -
b10 .
#8000000000
0!
#8500000000
1!
b1 -
b11 /
b0 .
#9000000000
0!
#9500000000
1!
b10 -
#10000000000
0!
#10500000000
1!
b11 -
#11000000000
0!
#11500000000
1!
b0 -
b11 .
#12000000000
0!
#12500000000
1!
b1 -
b100 /
b0 .
#13000000000
0!
#13500000000
1!
b10 -
#14000000000
0!
#14500000000
1!
b11 -
#15000000000
0!
#15500000000
1!
b0 -
b100 .
#16000000000
0!
#16500000000
1!
b1 -
b101 /
b0 .
#17000000000
0!
#17500000000
1!
b10 -
#18000000000
0!
#18500000000
1!
b11 -
#19000000000
0!
#19500000000
1!
b0 -
b101 .
#20000000000
0!
#20500000000
1!
b1 -
b110 /
b0 .
#21000000000
0!
#21500000000
1!
b10 -
