tests/CPU/test_cpu.vcd
$comment Generated by Amaranth $end
$date 2026-04-19 01:59:12.586565 $end
$timescale 1 fs $end
$scope module bench $end
$scope module top $end
$var wire 1 ! clk $end
$var wire 1 " rst $end
$var wire 8 # p $end
$var wire 1 $ flag_c $end
$var wire 1 % flag_z $end
$var wire 1 & flag_i $end
$var wire 1 ' flag_d $end
$var wire 1 ( flag_b $end
$var wire 1 ) flag_v $end
$var wire 1 * flag_n $end
$var wire 1 + rst$10 $end
$var wire 1 , in_reset $end
$var wire 16 - addr $end
$var wire 3 . state $end
$var wire 16 / pc $end
$var wire 8 0 opcode $end
$var wire 4 1 addr_mode $end
$var wire 16 2 eff_addr $end
$var wire 8 3 operand $end
$var wire 8 4 x $end
$var wire 8 5 y $end
$var wire 16 6 addr_temp $end
$var wire 8 7 sp $end
$var wire 8 8 ir $end
$var wire 8 9 data_in $end
$var wire 8 : a $end
$var wire 8 ; data_out $end
$var wire 1 < we $end
$var wire 8 = data_temp $end
$upscope $end
$upscope $end
$enddefinitions $end
#0
$dumpvars
0!
0"
b1000000 #
0$
0%
0&
0'
0(
0)
0*
1+
1,
b0 -
b0 .
b0 /
b0 0
b0 1
b0 2
b0 3
b0 4
b0 5
b0 6
b0 7
b0 8
b0 9
b0 :
b0 ;
0<
b0 =
$end
#500000000
1!
1&
b11111101 7
b1111111111111100 /
b1000100 #
#1000000000
0!
#1500000000
1!
0+
b1111111111111100 -
#2000000000
0!
#2500000000
1!
0,
b10101001 9
#3000000000
0!
#3500000000
1!
b10101001 0
b1 .
b1111111111111101 /
b10101001 8
b1111111111111101 -
b101 9
#4000000000
0!
#4500000000
1!
b101 3
b10 .
b1111111111111110 /
b1111111111111110 -
b0 9
#5000000000
0!
#5500000000
1!
b1111111111111111 /
b11 .
b10100000000 6
b1 1
b0 -
b1111111111111111 2
#6000000000
0!
#6500000000
1!
b100 .
b0 1
b0 2
#7000000000
0!
#7500000000
1!
b101 :
b0 .
b1111111111111111 -
#8000000000
0!
#8500000000
1!
b0 0
b1 .
b0 /
b0 8
b0 -
#9000000000
0!
#9500000000
1!
b0 3
b10 .
b1 /
b1 -
#10000000000
0!
#10500000000
1!
b10 /
b11 .
b0 6
b0 -
#11000000000
0!
#11500000000
1!
b100 .
#12000000000
0!
#12500000000
1!
b0 .
b10 -
#13000000000
0!
#13500000000
1!
b1 .
b11 /
b11 -
#14000000000
0!
#14500000000
1!
b10 .
b100 /
b100 -
#15000000000
0!
#15500000000
1!
b11 .
b101 /
b0 -
#16000000000
0!
#16500000000
1!
b100 .
#17000000000
0!
#17500000000
1!
b0 .
b101 -
#18000000000
0!
#18500000000
1!
b1 .
b110 /
b110 -
#19000000000
0!
#19500000000
1!
b10 .
b111 /
b111 -
#20000000000
0!
#20500000000
1!
b11 .
b1000 /
b0 -
#21000000000
0!
#21500000000
1!
b100 .
#22000000000
0!
#22500000000
1!
b0 .
b1000 -
#23000000000
0!
#23500000000
1!
b1 .
b1001 /
b1001 -
#24000000000
0!
#24500000000
1!
b10 .
b1010 /
b1010 -
#25000000000
0!
#25500000000
1!
b11 .
b1011 /
b0 -
#26000000000
0!
#26500000000
1!
b100 .
